^C:\USERS\FNEGRINI\DOCUMENTS\MESTRADO\ELEVATOR\SOURCE\VS\ELEVATORCONSOLE\ELEVATORCONSOLE\STDAFX.CPP
/c /ZI /nologo /W3 /WX- /sdl /Od /D _DEBUG /D _CONSOLE /D _UNICODE /D UNICODE /Gm /EHsc /RTC1 /MDd /GS /fp:precise /Zc:wchar_t /Zc:forScope /Zc:inline /Yc"stdafx.h" /Fp"X64\DEBUG\ELEVATORCONSOLE.PCH" /Fo"X64\DEBUG\\" /Fd"X64\DEBUG\VC140.PDB" /Gd /TP C:\USERS\FNEGRINI\DOCUMENTS\MESTRADO\ELEVATOR\SOURCE\VS\ELEVATORCONSOLE\ELEVATORCONSOLE\STDAFX.CPP
^C:\USERS\FNEGRINI\DOCUMENTS\MESTRADO\ELEVATOR\SOURCE\CONSOLE\LOGSTREAM.CPP
/c /ZI /nologo /W3 /WX- /sdl /Od /D _DEBUG /D _CONSOLE /D _UNICODE /D UNICODE /Gm /EHsc /RTC1 /MDd /GS /fp:precise /Zc:wchar_t /Zc:forScope /Zc:inline /Fo"X64\DEBUG\\" /Fd"X64\DEBUG\VC140.PDB" /Gd /TP C:\USERS\FNEGRINI\DOCUMENTS\MESTRADO\ELEVATOR\SOURCE\CONSOLE\LOGSTREAM.CPP
^C:\USERS\FNEGRINI\DOCUMENTS\MESTRADO\ELEVATOR\SOURCE\CORE\COMPONENTBASE.CPP
/c /ZI /nologo /W3 /WX- /sdl /Od /D _DEBUG /D _CONSOLE /D _UNICODE /D UNICODE /Gm /EHsc /RTC1 /MDd /GS /fp:precise /Zc:wchar_t /Zc:forScope /Zc:inline /Fo"X64\DEBUG\\" /Fd"X64\DEBUG\VC140.PDB" /Gd /TP C:\USERS\FNEGRINI\DOCUMENTS\MESTRADO\ELEVATOR\SOURCE\CORE\COMPONENTBASE.CPP
^C:\USERS\FNEGRINI\DOCUMENTS\MESTRADO\ELEVATOR\SOURCE\CORE\COMPONENTBASECYCLETHREAD.CPP
/c /ZI /nologo /W3 /WX- /sdl /Od /D _DEBUG /D _CONSOLE /D _UNICODE /D UNICODE /Gm /EHsc /RTC1 /MDd /GS /fp:precise /Zc:wchar_t /Zc:forScope /Zc:inline /Fo"X64\DEBUG\\" /Fd"X64\DEBUG\VC140.PDB" /Gd /TP C:\USERS\FNEGRINI\DOCUMENTS\MESTRADO\ELEVATOR\SOURCE\CORE\COMPONENTBASECYCLETHREAD.CPP
^C:\USERS\FNEGRINI\DOCUMENTS\MESTRADO\ELEVATOR\SOURCE\CORE\CONTROLERBASE.CPP
/c /ZI /nologo /W3 /WX- /sdl /Od /D _DEBUG /D _CONSOLE /D _UNICODE /D UNICODE /Gm /EHsc /RTC1 /MDd /GS /fp:precise /Zc:wchar_t /Zc:forScope /Zc:inline /Fo"X64\DEBUG\\" /Fd"X64\DEBUG\VC140.PDB" /Gd /TP C:\USERS\FNEGRINI\DOCUMENTS\MESTRADO\ELEVATOR\SOURCE\CORE\CONTROLERBASE.CPP
^C:\USERS\FNEGRINI\DOCUMENTS\MESTRADO\ELEVATOR\SOURCE\CORE\ELEVATOR.CPP
/c /ZI /nologo /W3 /WX- /sdl /Od /D _DEBUG /D _CONSOLE /D _UNICODE /D UNICODE /Gm /EHsc /RTC1 /MDd /GS /fp:precise /Zc:wchar_t /Zc:forScope /Zc:inline /Fo"X64\DEBUG\\" /Fd"X64\DEBUG\VC140.PDB" /Gd /TP C:\USERS\FNEGRINI\DOCUMENTS\MESTRADO\ELEVATOR\SOURCE\CORE\ELEVATOR.CPP
^C:\USERS\FNEGRINI\DOCUMENTS\MESTRADO\ELEVATOR\SOURCE\CORE\ELEVATORCONTROLER.CPP
/c /ZI /nologo /W3 /WX- /sdl /Od /D _DEBUG /D _CONSOLE /D _UNICODE /D UNICODE /Gm /EHsc /RTC1 /MDd /GS /fp:precise /Zc:wchar_t /Zc:forScope /Zc:inline /Fo"X64\DEBUG\\" /Fd"X64\DEBUG\VC140.PDB" /Gd /TP C:\USERS\FNEGRINI\DOCUMENTS\MESTRADO\ELEVATOR\SOURCE\CORE\ELEVATORCONTROLER.CPP
^C:\USERS\FNEGRINI\DOCUMENTS\MESTRADO\ELEVATOR\SOURCE\CORE\LOGBASE.CPP
/c /ZI /nologo /W3 /WX- /sdl /Od /D _DEBUG /D _CONSOLE /D _UNICODE /D UNICODE /Gm /EHsc /RTC1 /MDd /GS /fp:precise /Zc:wchar_t /Zc:forScope /Zc:inline /Fo"X64\DEBUG\\" /Fd"X64\DEBUG\VC140.PDB" /Gd /TP C:\USERS\FNEGRINI\DOCUMENTS\MESTRADO\ELEVATOR\SOURCE\CORE\LOGBASE.CPP
^C:\USERS\FNEGRINI\DOCUMENTS\MESTRADO\ELEVATOR\SOURCE\CORE\PERSON.CPP
/c /ZI /nologo /W3 /WX- /sdl /Od /D _DEBUG /D _CONSOLE /D _UNICODE /D UNICODE /Gm /EHsc /RTC1 /MDd /GS /fp:precise /Zc:wchar_t /Zc:forScope /Zc:inline /Fo"X64\DEBUG\\" /Fd"X64\DEBUG\VC140.PDB" /Gd /TP C:\USERS\FNEGRINI\DOCUMENTS\MESTRADO\ELEVATOR\SOURCE\CORE\PERSON.CPP
^C:\USERS\FNEGRINI\DOCUMENTS\MESTRADO\ELEVATOR\SOURCE\CORE\REQUEST.CPP
/c /ZI /nologo /W3 /WX- /sdl /Od /D _DEBUG /D _CONSOLE /D _UNICODE /D UNICODE /Gm /EHsc /RTC1 /MDd /GS /fp:precise /Zc:wchar_t /Zc:forScope /Zc:inline /Fo"X64\DEBUG\\" /Fd"X64\DEBUG\VC140.PDB" /Gd /TP C:\USERS\FNEGRINI\DOCUMENTS\MESTRADO\ELEVATOR\SOURCE\CORE\REQUEST.CPP
^C:\USERS\FNEGRINI\DOCUMENTS\MESTRADO\ELEVATOR\SOURCE\CORE\REQUESTLIST.CPP
/c /ZI /nologo /W3 /WX- /sdl /Od /D _DEBUG /D _CONSOLE /D _UNICODE /D UNICODE /Gm /EHsc /RTC1 /MDd /GS /fp:precise /Zc:wchar_t /Zc:forScope /Zc:inline /Fo"X64\DEBUG\\" /Fd"X64\DEBUG\VC140.PDB" /Gd /TP C:\USERS\FNEGRINI\DOCUMENTS\MESTRADO\ELEVATOR\SOURCE\CORE\REQUESTLIST.CPP
^C:\USERS\FNEGRINI\DOCUMENTS\MESTRADO\ELEVATOR\SOURCE\CORE\THREAD.CPP
/c /ZI /nologo /W3 /WX- /sdl /Od /D _DEBUG /D _CONSOLE /D _UNICODE /D UNICODE /Gm /EHsc /RTC1 /MDd /GS /fp:precise /Zc:wchar_t /Zc:forScope /Zc:inline /Fo"X64\DEBUG\\" /Fd"X64\DEBUG\VC140.PDB" /Gd /TP C:\USERS\FNEGRINI\DOCUMENTS\MESTRADO\ELEVATOR\SOURCE\CORE\THREAD.CPP
^C:\USERS\FNEGRINI\DOCUMENTS\MESTRADO\ELEVATOR\SOURCE\CORE\TRIP.CPP
/c /ZI /nologo /W3 /WX- /sdl /Od /D _DEBUG /D _CONSOLE /D _UNICODE /D UNICODE /Gm /EHsc /RTC1 /MDd /GS /fp:precise /Zc:wchar_t /Zc:forScope /Zc:inline /Fo"X64\DEBUG\\" /Fd"X64\DEBUG\VC140.PDB" /Gd /TP C:\USERS\FNEGRINI\DOCUMENTS\MESTRADO\ELEVATOR\SOURCE\CORE\TRIP.CPP
^C:\USERS\FNEGRINI\DOCUMENTS\MESTRADO\ELEVATOR\SOURCE\VS\ELEVATORCONSOLE\ELEVATORCONSOLE\ELEVATORCONSOLE.CPP
/c /ZI /nologo /W3 /WX- /sdl /Od /D _DEBUG /D _CONSOLE /D _UNICODE /D UNICODE /Gm /EHsc /RTC1 /MDd /GS /fp:precise /Zc:wchar_t /Zc:forScope /Zc:inline /Fo"X64\DEBUG\\" /Fd"X64\DEBUG\VC140.PDB" /Gd /TP C:\USERS\FNEGRINI\DOCUMENTS\MESTRADO\ELEVATOR\SOURCE\VS\ELEVATORCONSOLE\ELEVATORCONSOLE\ELEVATORCONSOLE.CPP
